…
9. (3 points) Create three new objects that restrict each data set (life expectancy, population, income) to the years 1920-2020. Hint: I suggest doing this with the long form of your data. Once this is done, merge all three data sets using the code I provide below. You may need to adjust the code depending on how you have named your objects. I called mine `life_expectancy_100`, `population_100`, and `income_100`. For some of you, learning these `joins` will be important for your project.  


```r
pop_long_restricted <- pop_long %>% filter(date >=1920) %>% filter(date <=2020) 
life_long_restricted <- life_long %>% filter(date >=1920) %>% filter(date <=2020) 
income_long_restricted <- income_long %>% filter(date >=1920) %>% filter(date <=2020) 
gapminder_join <- inner_join(pop_long_restricted, life_long_restricted, by= c("country", "date"))
gapminder_join <- inner_join(gapminder_join, income_long_restricted, by= c("country", "date"))
gapminder_join
```

```
## # A tibble: 18,887 × 5
##    country      date population life_expectancy income
##    <chr>       <dbl>      <int>           <dbl>  <int>
##  1 Afghanistan  1920   10600000            30.6   1490
##  2 Afghanistan  1921   10500000            30.7   1520
##  3 Afghanistan  1922   10300000            30.8   1550
##  4 Afghanistan  1923    9710000            30.8   1570
##  5 Afghanistan  1924    9200000            30.9   1600
##  6 Afghanistan  1925    8720000            31     1630
##  7 Afghanistan  1926    8260000            31     1650
##  8 Afghanistan  1927    7830000            31.1   1680
##  9 Afghanistan  1928    7420000            31.1   1710
## 10 Afghanistan  1929    7100000            31.2   1740
## # … with 18,877 more rows
```
…
