…
```r
neutral_heroes <- filter(superhero_info, Alignment == 'neutral')
```

## `superhero_info`
3. Let's say we are only interested in the variables name, alignment, and "race". How would you isolate these variables from `superhero_info`?

```r
only_intersted <- superhero_info %>% select(name, Alignment, race)
only_intersted
```

```
## # A tibble: 734 × 3
##    name          Alignment race             
##    <chr>         <chr>     <chr>            
##  1 A-Bomb        good      Human            
##  2 Abe Sapien    good      Icthyo Sapien    
##  3 Abin Sur      good      Ungaran          
##  4 Abomination   bad       Human / Radiation
##  5 Abraxas       bad       Cosmic Entity    
##  6 Absorbing Man bad       Human            
##  7 Adam Monroe   good      <NA>             
##  8 Adam Strange  good      Human            
##  9 Agent 13      good      <NA>             
## 10 Agent Bob     good      Human            
## # … with 724 more rows
```
…
```r
as_good_heroes <- filter(good_heroes, race == 'Asgardian')
```

8. Among the bad guys, who are the male humans over 200 inches in height?

```r
smol_bad_males <- filter(bad_heroes, gender == 'Male')
smol_tiny_bad_males <- filter(smol_bad_males, Height >= 200)
smol_tiny_bad_males
```

```
## # A tibble: 22 × 10
##    name  gender eye_color race  hair_color Height publisher skin_color Alignment
##    <chr> <chr>  <chr>     <chr> <chr>       <dbl> <chr>     <chr>      <chr>    
##  1 Abom… Male   green     Huma… No Hair       203 Marvel C… <NA>       bad      
##  2 Alien Male   <NA>      Xeno… No Hair       244 Dark Hor… black      bad      
##  3 Amazo Male   red       Andr… <NA>          257 DC Comics <NA>       bad      
##  4 Apoc… Male   red       Muta… Black         213 Marvel C… grey       bad      
##  5 Bane  Male   <NA>      Human <NA>          203 DC Comics <NA>       bad      
##  6 Dark… Male   red       New … No Hair       267 DC Comics grey       bad      
##  7 Doct… Male   brown     Human Brown         201 Marvel C… <NA>       bad      
##  8 Doct… Male   brown     <NA>  Brown         201 Marvel C… <NA>       bad      
##  9 Doom… Male   red       Alien White         244 DC Comics <NA>       bad      
## 10 Kill… Male   red       Meta… No Hair       244 DC Comics green      bad      
## # … with 12 more rows, and 1 more variable: Weight <dbl>
```

9. OK, so are there more good guys or bad guys that are bald (personal interest)?

```r
bald_bad_guys <- filter(bad_heroes, hair_color == 'No Hair')
bald_bad_guys
```

```
## # A tibble: 35 × 10
##    name  gender eye_color race  hair_color Height publisher skin_color Alignment
##    <chr> <chr>  <chr>     <chr> <chr>       <dbl> <chr>     <chr>      <chr>    
##  1 Abom… Male   green     Huma… No Hair     203   Marvel C… <NA>       bad      
##  2 Abso… Male   blue      Human No Hair     193   Marvel C… <NA>       bad      
##  3 Alien Male   <NA>      Xeno… No Hair     244   Dark Hor… black      bad      
##  4 Anni… Male   green     <NA>  No Hair     180   Marvel C… <NA>       bad      
##  5 Anti… Male   yellow    God … No Hair      61   DC Comics <NA>       bad      
##  6 Blac… Male   black     Human No Hair     188   DC Comics <NA>       bad      
##  7 Bloo… Male   white     <NA>  No Hair      30.5 Marvel C… <NA>       bad      
##  8 Brai… Male   green     Andr… No Hair     198   DC Comics green      bad      
##  9 Dark… Male   red       New … No Hair     267   DC Comics grey       bad      
## 10 Dart… Male   yellow    Cybo… No Hair     198   George L… <NA>       bad      
## # … with 25 more rows, and 1 more variable: Weight <dbl>
```

```r
bald_good_guys <- filter(good_heroes, hair_color == 'No Hair')
bald_good_guys
```

```
## # A tibble: 37 × 10
##    name  gender eye_color race  hair_color Height publisher skin_color Alignment
##    <chr> <chr>  <chr>     <chr> <chr>       <dbl> <chr>     <chr>      <chr>    
##  1 A-Bo… Male   yellow    Human No Hair       203 Marvel C… <NA>       good     
##  2 Abe … Male   blue      Icth… No Hair       191 Dark Hor… blue       good     
##  3 Abin… Male   blue      Unga… No Hair       185 DC Comics red        good     
##  4 Beta… Male   <NA>      <NA>  No Hair       201 Marvel C… <NA>       good     
##  5 Bish… Male   brown     Muta… No Hair       198 Marvel C… <NA>       good     
##  6 Blac… Male   brown     <NA>  No Hair       185 DC Comics <NA>       good     
##  7 Blaq… <NA>   black     <NA>  No Hair        NA Marvel C… <NA>       good     
##  8 Bloo… Male   black     Muta… No Hair        NA Marvel C… <NA>       good     
##  9 Crim… Male   brown     <NA>  No Hair       180 Marvel C… <NA>       good     
## 10 Dona… Male   green     Muta… No Hair        NA IDW Publ… green      good     
## # … with 27 more rows, and 1 more variable: Weight <dbl>
```

```r
#more good guys with no hair
```

10. Let's explore who the really "big" superheros are. In the `superhero_info` data, which have a height over 200 or weight greater than or equal to 450?

```r
big_dogz <- filter(superhero_info, Height > 200 | Weight >= 450)
big_dogz
```

```
## # A tibble: 60 × 10
##    name  gender eye_color race  hair_color Height publisher skin_color Alignment
##    <chr> <chr>  <chr>     <chr> <chr>       <dbl> <chr>     <chr>      <chr>    
##  1 A-Bo… Male   yellow    Human No Hair       203 Marvel C… <NA>       good     
##  2 Abom… Male   green     Huma… No Hair       203 Marvel C… <NA>       bad      
##  3 Alien Male   <NA>      Xeno… No Hair       244 Dark Hor… black      bad      
##  4 Amazo Male   red       Andr… <NA>          257 DC Comics <NA>       bad      
##  5 Ant-… Male   blue      Human Blond         211 Marvel C… <NA>       good     
##  6 Anti… Male   blue      Symb… Blond         229 Marvel C… <NA>       <NA>     
##  7 Apoc… Male   red       Muta… Black         213 Marvel C… grey       bad      
##  8 Bane  Male   <NA>      Human <NA>          203 DC Comics <NA>       bad      
##  9 Beta… Male   <NA>      <NA>  No Hair       201 Marvel C… <NA>       good     
## 10 Bloo… Female blue      Human Brown         218 Marvel C… <NA>       bad      
## # … with 50 more rows, and 1 more variable: Weight <dbl>
```
…
14. How many superheros have a combination of accelerated healing, durability, and super strength?

```r
filter(superhero_powers, accelerated_healing, durability, super_strength)
```

```
## # A tibble: 97 × 168
##    hero_names   agility accelerated_healing lantern_power_ring dimensional_awar…
##    <chr>        <lgl>   <lgl>               <lgl>              <lgl>            
##  1 A-Bomb       FALSE   TRUE                FALSE              FALSE            
##  2 Abe Sapien   TRUE    TRUE                FALSE              FALSE            
##  3 Angel        TRUE    TRUE                FALSE              FALSE            
##  4 Anti-Monitor FALSE   TRUE                FALSE              TRUE             
##  5 Anti-Venom   FALSE   TRUE                FALSE              FALSE            
##  6 Aquaman      TRUE    TRUE                FALSE              FALSE            
##  7 Arachne      TRUE    TRUE                FALSE              FALSE            
##  8 Archangel    TRUE    TRUE                FALSE              FALSE            
##  9 Ardina       TRUE    TRUE                FALSE              FALSE            
## 10 Ares         TRUE    TRUE                FALSE              FALSE            
## # … with 87 more rows, and 163 more variables: cold_resistance <lgl>,
## #   durability <lgl>, stealth <lgl>, energy_absorption <lgl>, flight <lgl>,
## #   danger_sense <lgl>, underwater_breathing <lgl>, marksmanship <lgl>,
## #   weapons_master <lgl>, power_augmentation <lgl>, animal_attributes <lgl>,
## #   longevity <lgl>, intelligence <lgl>, super_strength <lgl>,
## #   cryokinesis <lgl>, telepathy <lgl>, energy_armor <lgl>,
## #   energy_blasts <lgl>, duplication <lgl>, size_changing <lgl>, …
```
…
